SCP/Test/mips_singlecycle_tb.vcd
$date
  Thu Sep  2 09:37:27 2021
$end
$version
  GHDL v0
$end
$timescale
  1 fs
$end
$scope module standard $end
$upscope $end
$scope module std_logic_1164 $end
$upscope $end
$scope module numeric_std $end
$upscope $end
$scope module mips_singlecycle_tb $end
$var reg 1 ! clk $end
$var reg 1 " reset $end
$var reg 32 # instr[31:0] $end
$var integer 32 $ count $end
$scope module mips $end
$var reg 1 % clk $end
$var reg 1 & reset $end
$var reg 32 ' instr_out[31:0] $end
$var reg 32 ( pc[31:0] $end
$var reg 32 ) instr[31:0] $end
$var reg 32 * aluout[31:0] $end
$var reg 32 + readdata[31:0] $end
$var reg 32 , writedata[31:0] $end
$var reg 1 - memwrite $end
$scope module mips1 $end
$var reg 1 . clk $end
$var reg 1 / reset $end
$var reg 32 0 pc[31:0] $end
$var reg 32 1 instr[31:0] $end
$var reg 32 2 readdata[31:0] $end
$var reg 32 3 aluout[31:0] $end
$var reg 32 4 writedata[31:0] $end
$var reg 1 5 memwrite $end
$var reg 1 6 memtoreg $end
$var reg 1 7 alusrc $end
$var reg 1 8 regdst $end
$var reg 1 9 regwrite $end
$var reg 1 : jump $end
$var reg 1 ; pcsrc $end
$var reg 1 < zero $end
$var reg 3 = alucontrol[2:0] $end
$scope module mips_control $end
$var reg 6 > op[5:0] $end
$var reg 6 ? funct[5:0] $end
$var reg 1 @ zero $end
$var reg 1 A memtoreg $end
$var reg 1 B memwrite $end
$var reg 1 C pcsrc $end
$var reg 1 D alusrc $end
$var reg 1 E regdst $end
$var reg 1 F regwrite $end
$var reg 1 G jump $end
$var reg 3 H alucontrol[2:0] $end
$var reg 2 I aluop[1:0] $end
$var reg 1 J branch $end
$scope module md $end
$var reg 6 K op[5:0] $end
$var reg 1 L memtoreg $end
$var reg 1 M memwrite $end
$var reg 1 N branch $end
$var reg 1 O alusrc $end
$var reg 1 P regdst $end
$var reg 1 Q regwrite $end
$var reg 1 R jump $end
$var reg 2 S aluop[1:0] $end
$var reg 9 T controls[8:0] $end
$upscope $end
$scope module ad $end
$var reg 6 U funct[5:0] $end
$var reg 2 V aluop[1:0] $end
$var reg 3 W alucontrol[2:0] $end
$upscope $end
$upscope $end
$scope module mips_datapath $end
$var reg 1 X clk $end
$var reg 1 Y reset $end
$var reg 1 Z memtoreg $end
$var reg 1 [ pcsrc $end
$var reg 1 \ alusrc $end
$var reg 1 ] regdst $end
$var reg 1 ^ regwrite $end
$var reg 1 _ jump $end
$var reg 3 ` alucontrol[2:0] $end
$var reg 32 a readdata[31:0] $end
$var reg 32 b instr[31:0] $end
$var reg 1 c zero $end
$var reg 32 d pc[31:0] $end
$var reg 32 e aluout[31:0] $end
$var reg 32 f writedata[31:0] $end
$var reg 5 g writereg[4:0] $end
$var reg 32 h pcjump[31:0] $end
$var reg 32 i pcnext[31:0] $end
$var reg 32 j pcnextbr[31:0] $end
$var reg 32 k pcplus4[31:0] $end
$var reg 32 l pcbranch[31:0] $end
$var reg 32 m signimm[31:0] $end
$var reg 32 n signimmsh[31:0] $end
$var reg 32 o srca[31:0] $end
$var reg 32 p srcb[31:0] $end
$var reg 32 q result[31:0] $end
$scope module pcreg $end
$var reg 1 r clk $end
$var reg 1 s reset $end
$var reg 32 t d[31:0] $end
$var reg 32 u q[31:0] $end
$upscope $end
$scope module pcadd1 $end
$var reg 32 v a[31:0] $end
$var reg 32 w b[31:0] $end
$var reg 32 x y[31:0] $end
$upscope $end
$scope module immsh $end
$var reg 32 y a[31:0] $end
$var reg 32 z y[31:0] $end
$upscope $end
$scope module pcadd2 $end
$var reg 32 { a[31:0] $end
$var reg 32 | b[31:0] $end
$var reg 32 } y[31:0] $end
$upscope $end
$scope module pcbrmux $end
$var reg 32 !" d0[31:0] $end
$var reg 32 "" d1[31:0] $end
$var reg 1 #" s $end
$var reg 32 $" y[31:0] $end
$upscope $end
$scope module pcmux $end
$var reg 32 %" d0[31:0] $end
$var reg 32 &" d1[31:0] $end
$var reg 1 '" s $end
$var reg 32 (" y[31:0] $end
$upscope $end
$scope module rf $end
$var reg 1 )" clk $end
$var reg 1 *" we3 $end
$var reg 5 +" a1[4:0] $end
$var reg 5 ," a2[4:0] $end
$var reg 5 -" a3[4:0] $end
$var reg 32 ." wd3[31:0] $end
$var reg 32 /" rd1[31:0] $end
$var reg 32 0" rd2[31:0] $end
$comment mem is not handled $end
$upscope $end
$scope module wrmux $end
$var reg 5 1" d0[4:0] $end
$var reg 5 2" d1[4:0] $end
$var reg 1 3" s $end
$var reg 5 4" y[4:0] $end
$upscope $end
$scope module resmux $end
$var reg 32 5" d0[31:0] $end
$var reg 32 6" d1[31:0] $end
$var reg 1 7" s $end
$var reg 32 8" y[31:0] $end
$upscope $end
$scope module se $end
$var reg 16 9" a[15:0] $end
$var reg 32 :" aext[31:0] $end
$upscope $end
$scope module srcbmux $end
$var reg 32 ;" d0[31:0] $end
$var reg 32 <" d1[31:0] $end
$var reg 1 =" s $end
$var reg 32 >" y[31:0] $end
$upscope $end
$scope module mainalu $end
$var reg 32 ?" a[31:0] $end
$var reg 32 @" b[31:0] $end
$var reg 3 A" alucontrol[2:0] $end
$var reg 32 B" result[31:0] $end
$var reg 1 C" zero $end
$upscope $end
$upscope $end
$upscope $end
$scope module mem_instr $end
$var reg 32 D" pc[31:0] $end
$var reg 32 E" instr[31:0] $end
$comment mem is not handled $end
$upscope $end
$scope module mem_data $end
$var reg 1 F" clk $end
$var reg 32 G" addr[31:0] $end
$var reg 32 H" data_in[31:0] $end
$var reg 1 I" memwrite $end
$var reg 32 J" data_out[31:0] $end
$comment mem is not handled $end
$upscope $end
$upscope $end
$upscope $end
$enddefinitions $end
#0
0!
1"
b00100000000000010000000001100101 #
b0 $
0%
1&
b00100000000000010000000001100101 '
b00000000000000000000000000000000 (
b00100000000000010000000001100101 )
b00000000000000000000000001100101 *
bUUUUUUUUUUUUUUUUUUUUUUUUUUUUUUUU +
bUUUUUUUUUUUUUUUUUUUUUUUUUUUUUUUU ,
0-
0.
1/
b00000000000000000000000000000000 0
b00100000000000010000000001100101 1
bUUUUUUUUUUUUUUUUUUUUUUUUUUUUUUUU 2
b00000000000000000000000001100101 3
bUUUUUUUUUUUUUUUUUUUUUUUUUUUUUUUU 4
05
06
17
08
19
0:
0;
0<
b010 =
b001000 >
b100101 ?
0@
0A
0B
0C
1D
0E
1F
0G
b010 H
b00 I
0J
b001000 K
0L
0M
0N
1O
0P
1Q
0R
b00 S
b101000000 T
b100101 U
b00 V
b010 W
0X
1Y
0Z
0[
1\
0]
1^
0_
b010 `
bUUUUUUUUUUUUUUUUUUUUUUUUUUUUUUUU a
b00100000000000010000000001100101 b
0c
b00000000000000000000000000000000 d
b00000000000000000000000001100101 e
bUUUUUUUUUUUUUUUUUUUUUUUUUUUUUUUU f
b00001 g
b00000000000001000000000110010100 h
b00000000000000000000000000000100 i
b00000000000000000000000000000100 j
b00000000000000000000000000000100 k
b00000000000000000000000110011000 l
b00000000000000000000000001100101 m
b00000000000000000000000110010100 n
b00000000000000000000000000000000 o
b00000000000000000000000001100101 p
b00000000000000000000000001100101 q
0r
1s
b00000000000000000000000000000100 t
b00000000000000000000000000000000 u
b00000000000000000000000000000000 v
b00000000000000000000000000000100 w
b00000000000000000000000000000100 x
b00000000000000000000000001100101 y
b00000000000000000000000110010100 z
b00000000000000000000000000000100 {
b00000000000000000000000110010100 |
b00000000000000000000000110011000 }
b00000000000000000000000000000100 !"
b00000000000000000000000110011000 ""
0#"
b00000000000000000000000000000100 $"
b00000000000000000000000000000100 %"
b00000000000001000000000110010100 &"
0'"
b00000000000000000000000000000100 ("
0)"
1*"
b00000 +"
b00001 ,"
b00001 -"
b00000000000000000000000001100101 ."
b00000000000000000000000000000000 /"
bUUUUUUUUUUUUUUUUUUUUUUUUUUUUUUUU 0"
b00001 1"
b00000 2"
03"
b00001 4"
b00000000000000000000000001100101 5"
bUUUUUUUUUUUUUUUUUUUUUUUUUUUUUUUU 6"
07"
b00000000000000000000000001100101 8"
b0000000001100101 9"
b00000000000000000000000001100101 :"
bUUUUUUUUUUUUUUUUUUUUUUUUUUUUUUUU ;"
b00000000000000000000000001100101 <"
1="
b00000000000000000000000001100101 >"
b00000000000000000000000000000000 ?"
b00000000000000000000000001100101 @"
b010 A"
b00000000000000000000000001100101 B"
0C"
b00000000000000000000000000000000 D"
b00100000000000010000000001100101 E"
0F"
b00000000000000000000000001100101 G"
bUUUUUUUUUUUUUUUUUUUUUUUUUUUUUUUU H"
0I"
bUUUUUUUUUUUUUUUUUUUUUUUUUUUUUUUU J"
#10000000
0"
0&
0/
0Y
0s
#20000000
1!
b00100000000000100000000000000000 #
1%
b00100000000000100000000000000000 '
b00000000000000000000000000000100 (
b00100000000000100000000000000000 )
b00000000000000000000000000000000 *
1.
b00000000000000000000000000000100 0
b00100000000000100000000000000000 1
b00000000000000000000000000000000 3
1<
b000000 ?
1@
b000000 U
1X
b00100000000000100000000000000000 b
1c
b00000000000000000000000000000100 d
b00000000000000000000000000000000 e
b00010 g
b00000000000010000000000000000000 h
b00000000000000000000000000001000 i
b00000000000000000000000000001000 j
b00000000000000000000000000001000 k
b00000000000000000000000000001000 l
b00000000000000000000000000000000 m
b00000000000000000000000000000000 n
b00000000000000000000000000000000 p
b00000000000000000000000000000000 q
1r
b00000000000000000000000000001000 t
b00000000000000000000000000000100 u
b00000000000000000000000000000100 v
b00000000000000000000000000001000 x
b00000000000000000000000000000000 y
b00000000000000000000000000000000 z
b00000000000000000000000000001000 {
b00000000000000000000000000000000 |
b00000000000000000000000000001000 }
b00000000000000000000000000001000 !"
b00000000000000000000000000001000 ""
b00000000000000000000000000001000 $"
b00000000000000000000000000001000 %"
b00000000000010000000000000000000 &"
b00000000000000000000000000001000 ("
1)"
b00010 ,"
b00010 -"
b00000000000000000000000000000000 ."
b00010 1"
b00010 4"
b00000000000000000000000000000000 5"
b00000000000000000000000000000000 8"
b0000000000000000 9"
b00000000000000000000000000000000 :"
b00000000000000000000000000000000 <"
b00000000000000000000000000000000 >"
b00000000000000000000000000000000 @"
b00000000000000000000000000000000 B"
1C"
b00000000000000000000000000000100 D"
b00100000000000100000000000000000 E"
1F"
b00000000000000000000000000000000 G"
#30000000
0!
0%
0.
0X
0r
0)"
0F"
#40000000
1!
b00100000000000110000000000000000 #
b1 $
1%
b00100000000000110000000000000000 '
b00000000000000000000000000001000 (
b00100000000000110000000000000000 )
1.
b00000000000000000000000000001000 0
b00100000000000110000000000000000 1
1X
b00100000000000110000000000000000 b
b00000000000000000000000000001000 d
b00011 g
b00000000000011000000000000000000 h
b00000000000000000000000000001100 i
b00000000000000000000000000001100 j
b00000000000000000000000000001100 k
b00000000000000000000000000001100 l
1r
b00000000000000000000000000001100 t
b00000000000000000000000000001000 u
b00000000000000000000000000001000 v
b00000000000000000000000000001100 x
b00000000000000000000000000001100 {
b00000000000000000000000000001100 }
b00000000000000000000000000001100 !"
b00000000000000000000000000001100 ""
b00000000000000000000000000001100 $"
b00000000000000000000000000001100 %"
b00000000000011000000000000000000 &"
b00000000000000000000000000001100 ("
1)"
b00011 ,"
b00011 -"
b00011 1"
b00011 4"
b00000000000000000000000000001000 D"
b00100000000000110000000000000000 E"
1F"
#50000000
0!
0%
0.
0X
0r
0)"
0F"
#60000000
1!
b00010000001000100000000000000110 #
b10 $
1%
b00010000001000100000000000000110 '
b00000000000000000000000000001100 (
b00010000001000100000000000000110 )
b00000000000000000000000001100101 *
b00000000000000000000000000000000 ,
1.
b00000000000000000000000000001100 0
b00010000001000100000000000000110 1
b00000000000000000000000001100101 3
b00000000000000000000000000000000 4
07
09
0;
0<
b110 =
b000100 >
b000110 ?
0@
0C
0D
0F
b110 H
b01 I
1J
b000100 K
1N
0O
0Q
b01 S
b000100001 T
b000110 U
b01 V
b110 W
1X
0[
0\
0^
b110 `
b00010000001000100000000000000110 b
0c
b00000000000000000000000000001100 d
b00000000000000000000000001100101 e
b00000000000000000000000000000000 f
b00010 g
b00000000100010000000000000011000 h
b00000000000000000000000000010000 i
b00000000000000000000000000010000 j
b00000000000000000000000000010000 k
b00000000000000000000000000101000 l
b00000000000000000000000000000110 m
b00000000000000000000000000011000 n
b00000000000000000000000001100101 o
b00000000000000000000000000000000 p
b00000000000000000000000001100101 q
1r
b00000000000000000000000000010000 t
b00000000000000000000000000001100 u
b00000000000000000000000000001100 v
b00000000000000000000000000010000 x
b00000000000000000000000000000110 y
b00000000000000000000000000011000 z
b00000000000000000000000000010000 {
b00000000000000000000000000011000 |
b00000000000000000000000000101000 }
b00000000000000000000000000010000 !"
b00000000000000000000000000101000 ""
0#"
b00000000000000000000000000010000 $"
b00000000000000000000000000010000 %"
b00000000100010000000000000011000 &"
b00000000000000000000000000010000 ("
1)"
0*"
b00001 +"
b00010 ,"
b00010 -"
b00000000000000000000000001100101 ."
b00000000000000000000000001100101 /"
b00000000000000000000000000000000 0"
b00010 1"
b00010 4"
b00000000000000000000000001100101 5"
b00000000000000000000000001100101 8"
b0000000000000110 9"
b00000000000000000000000000000110 :"
b00000000000000000000000000000000 ;"
b00000000000000000000000000000110 <"
0="
b00000000000000000000000000000000 >"
b00000000000000000000000001100101 ?"
b00000000000000000000000000000000 @"
b110 A"
b00000000000000000000000001100101 B"
0C"
b00000000000000000000000000001100 D"
b00010000001000100000000000000110 E"
1F"
b00000000000000000000000001100101 G"
b00000000000000000000000000000000 H"
#70000000
0!
0%
0.
0X
0r
0)"
0F"
#80000000
1!
b00000000011000100001100000100000 #
b11 $
1%
b00000000011000100001100000100000 '
b00000000000000000000000000010000 (
b00000000011000100001100000100000 )
b00000000000000000000000000000000 *
1.
b00000000000000000000000000010000 0
b00000000011000100001100000100000 1
b00000000000000000000000000000000 3
18
19
1<
b010 =
b000000 >
b100000 ?
1@
1E
1F
b010 H
b10 I
0J
b000000 K
0N
1P
1Q
b10 S
b110000010 T
b100000 U
b10 V
b010 W
1X
1]
1^
b010 `
b00000000011000100001100000100000 b
1c
b00000000000000000000000000010000 d
b00000000000000000000000000000000 e
b00011 g
b00000001100010000110000010000000 h
b00000000000000000000000000010100 i
b00000000000000000000000000010100 j
b00000000000000000000000000010100 k
b00000000000000000110000010010100 l
b00000000000000000001100000100000 m
b00000000000000000110000010000000 n
b00000000000000000000000000000000 o
b00000000000000000000000000000000 q
1r
b00000000000000000000000000010100 t
b00000000000000000000000000010000 u
b00000000000000000000000000010000 v
b00000000000000000000000000010100 x
b00000000000000000001100000100000 y
b00000000000000000110000010000000 z
b00000000000000000000000000010100 {
b00000000000000000110000010000000 |
b00000000000000000110000010010100 }
b00000000000000000000000000010100 !"
b00000000000000000110000010010100 ""
b00000000000000000000000000010100 $"
b00000000000000000000000000010100 %"
b00000001100010000110000010000000 &"
b00000000000000000000000000010100 ("
1)"
1*"
b00011 +"
b00011 -"
b00000000000000000000000000000000 ."
b00000000000000000000000000000000 /"
b00011 2"
13"
b00011 4"
b00000000000000000000000000000000 5"
b00000000000000000000000000000000 8"
b0001100000100000 9"
b00000000000000000001100000100000 :"
b00000000000000000001100000100000 <"
b00000000000000000000000000000000 ?"
b010 A"
b00000000000000000000000000000000 B"
1C"
b00000000000000000000000000010000 D"
b00000000011000100001100000100000 E"
1F"
b00000000000000000000000000000000 G"
#90000000
0!
0%
0.
0X
0r
0)"
0F"
#100000000
1!
b00000000010000100010000000100000 #
b100 $
1%
b00000000010000100010000000100000 '
b00000000000000000000000000010100 (
b00000000010000100010000000100000 )
1.
b00000000000000000000000000010100 0
b00000000010000100010000000100000 1
1X
b00000000010000100010000000100000 b
b00000000000000000000000000010100 d
b00100 g
b00000001000010001000000010000000 h
b00000000000000000000000000011000 i
b00000000000000000000000000011000 j
b00000000000000000000000000011000 k
b00000000000000001000000010011000 l
b00000000000000000010000000100000 m
b00000000000000001000000010000000 n
1r
b00000000000000000000000000011000 t
b00000000000000000000000000010100 u
b00000000000000000000000000010100 v
b00000000000000000000000000011000 x
b00000000000000000010000000100000 y
b00000000000000001000000010000000 z
b00000000000000000000000000011000 {
b00000000000000001000000010000000 |
b00000000000000001000000010011000 }
b00000000000000000000000000011000 !"
b00000000000000001000000010011000 ""
b00000000000000000000000000011000 $"
b00000000000000000000000000011000 %"
b00000001000010001000000010000000 &"
b00000000000000000000000000011000 ("
1)"
b00010 +"
b00100 -"
b00100 2"
b00100 4"
b0010000000100000 9"
b00000000000000000010000000100000 :"
b00000000000000000010000000100000 <"
b00000000000000000000000000010100 D"
b00000000010000100010000000100000 E"
1F"
#110000000
0!
0%
0.
0X
0r
0)"
0F"
#120000000
1!
b00000000100001000010000000100000 #
b101 $
1%
b00000000100001000010000000100000 '
b00000000000000000000000000011000 (
b00000000100001000010000000100000 )
1.
b00000000000000000000000000011000 0
b00000000100001000010000000100000 1
1X
b00000000100001000010000000100000 b
b00000000000000000000000000011000 d
b00000010000100001000000010000000 h
b00000000000000000000000000011100 i
b00000000000000000000000000011100 j
b00000000000000000000000000011100 k
b00000000000000001000000010011100 l
1r
b00000000000000000000000000011100 t
b00000000000000000000000000011000 u
b00000000000000000000000000011000 v
b00000000000000000000000000011100 x
b00000000000000000000000000011100 {
b00000000000000001000000010011100 }
b00000000000000000000000000011100 !"
b00000000000000001000000010011100 ""
b00000000000000000000000000011100 $"
b00000000000000000000000000011100 %"
b00000010000100001000000010000000 &"
b00000000000000000000000000011100 ("
1)"
b00100 +"
b00100 ,"
b00100 1"
b00000000000000000000000000011000 D"
b00000000100001000010000000100000 E"
1F"
#130000000
0!
0%
0.
0X
0r
0)"
0F"
#140000000
1!
b10101100100000110000000000000000 #
b110 $
1%
b10101100100000110000000000000000 '
b00000000000000000000000000011100 (
b10101100100000110000000000000000 )
1-
1.
b00000000000000000000000000011100 0
b10101100100000110000000000000000 1
15
17
08
09
b010 =
b101011 >
b000000 ?
1B
1D
0E
0F
b010 H
b00 I
b101011 K
1M
1O
0P
0Q
b00 S
b001010000 T
b000000 U
b00 V
b010 W
1X
1\
0]
0^
b010 `
b10101100100000110000000000000000 b
b00000000000000000000000000011100 d
b00011 g
b00000010000011000000000000000000 h
b00000000000000000000000000100000 i
b00000000000000000000000000100000 j
b00000000000000000000000000100000 k
b00000000000000000000000000100000 l
b00000000000000000000000000000000 m
b00000000000000000000000000000000 n
1r
b00000000000000000000000000100000 t
b00000000000000000000000000011100 u
b00000000000000000000000000011100 v
b00000000000000000000000000100000 x
b00000000000000000000000000000000 y
b00000000000000000000000000000000 z
b00000000000000000000000000100000 {
b00000000000000000000000000000000 |
b00000000000000000000000000100000 }
b00000000000000000000000000100000 !"
b00000000000000000000000000100000 ""
b00000000000000000000000000100000 $"
b00000000000000000000000000100000 %"
b00000010000011000000000000000000 &"
b00000000000000000000000000100000 ("
1)"
0*"
b00011 ,"
b00011 -"
b00011 1"
b00000 2"
03"
b00011 4"
b0000000000000000 9"
b00000000000000000000000000000000 :"
b00000000000000000000000000000000 <"
1="
b010 A"
b00000000000000000000000000011100 D"
b10101100100000110000000000000000 E"
1F"
1I"
#150000000
0!
0%
0.
0X
0r
0)"
0F"
#160000000
1!
b00100000010000100000000000000001 #
b111 $
1%
b00100000010000100000000000000001 '
b00000000000000000000000000100000 (
b00100000010000100000000000000001 )
b00000000000000000000000000000001 *
b00000000000000000000000000000000 +
0-
1.
b00000000000000000000000000100000 0
b00100000010000100000000000000001 1
b00000000000000000000000000000000 2
b00000000000000000000000000000001 3
05
19
0<
b001000 >
b000001 ?
0@
0B
1F
b001000 K
0M
1Q
b101000000 T
b000001 U
1X
1^
b00000000000000000000000000000000 a
b00100000010000100000000000000001 b
0c
b00000000000000000000000000100000 d
b00000000000000000000000000000001 e
b00010 g
b00000001000010000000000000000100 h
b00000000000000000000000000100100 i
b00000000000000000000000000100100 j
b00000000000000000000000000100100 k
b00000000000000000000000000101000 l
b00000000000000000000000000000001 m
b00000000000000000000000000000100 n
b00000000000000000000000000000001 p
b00000000000000000000000000000001 q
1r
b00000000000000000000000000100100 t
b00000000000000000000000000100000 u
b00000000000000000000000000100000 v
b00000000000000000000000000100100 x
b00000000000000000000000000000001 y
b00000000000000000000000000000100 z
b00000000000000000000000000100100 {
b00000000000000000000000000000100 |
b00000000000000000000000000101000 }
b00000000000000000000000000100100 !"
b00000000000000000000000000101000 ""
b00000000000000000000000000100100 $"
b00000000000000000000000000100100 %"
b00000001000010000000000000000100 &"
b00000000000000000000000000100100 ("
1)"
1*"
b00010 +"
b00010 ,"
b00010 -"
b00000000000000000000000000000001 ."
b00010 1"
b00010 4"
b00000000000000000000000000000001 5"
b00000000000000000000000000000000 6"
b00000000000000000000000000000001 8"
b0000000000000001 9"
b00000000000000000000000000000001 :"
b00000000000000000000000000000001 <"
b00000000000000000000000000000001 >"
b00000000000000000000000000000001 @"
b00000000000000000000000000000001 B"
0C"
b00000000000000000000000000100000 D"
b00100000010000100000000000000001 E"
1F"
b00000000000000000000000000000001 G"
0I"
b00000000000000000000000000000000 J"
#170000000
0!
0%
0.
0X
0r
0)"
0F"
#180000000
1!
b00001000000000000000000000000011 #
b1000 $
1%
b00001000000000000000000000000011 '
b00000000000000000000000000100100 (
b00001000000000000000000000000011 )
b00000000000000000000000000000000 *
1.
b00000000000000000000000000100100 0
b00001000000000000000000000000011 1
b00000000000000000000000000000000 3
07
09
1:
1<
b000010 >
b000011 ?
1@
0D
0F
1G
b000010 K
0O
0Q
1R
b000000100 T
b000011 U
1X
0\
0^
1_
b00001000000000000000000000000011 b
1c
b00000000000000000000000000100100 d
b00000000000000000000000000000000 e
b00000 g
b00000000000000000000000000001100 h
b00000000000000000000000000001100 i
b00000000000000000000000000101000 j
b00000000000000000000000000101000 k
b00000000000000000000000000110100 l
b00000000000000000000000000000011 m
b00000000000000000000000000001100 n
b00000000000000000000000000000000 p
b00000000000000000000000000000000 q
1r
b00000000000000000000000000001100 t
b00000000000000000000000000100100 u
b00000000000000000000000000100100 v
b00000000000000000000000000101000 x
b00000000000000000000000000000011 y
b00000000000000000000000000001100 z
b00000000000000000000000000101000 {
b00000000000000000000000000001100 |
b00000000000000000000000000110100 }
b00000000000000000000000000101000 !"
b00000000000000000000000000110100 ""
b00000000000000000000000000101000 $"
b00000000000000000000000000101000 %"
b00000000000000000000000000001100 &"
1'"
b00000000000000000000000000001100 ("
1)"
0*"
b00000 +"
b00000 ,"
b00000 -"
b00000000000000000000000000000000 ."
b00000 1"
b00000 4"
b00000000000000000000000000000000 5"
b00000000000000000000000000000000 8"
b0000000000000011 9"
b00000000000000000000000000000011 :"
b00000000000000000000000000000011 <"
0="
b00000000000000000000000000000000 >"
b00000000000000000000000000000000 @"
b00000000000000000000000000000000 B"
1C"
b00000000000000000000000000100100 D"
b00001000000000000000000000000011 E"
1F"
b00000000000000000000000000000000 G"
#190000000
0!
0%
0.
0X
0r
0)"
0F"
#200000000
1!
b00010000001000100000000000000110 #
b1001 $
1%
b00010000001000100000000000000110 '
b00000000000000000000000000001100 (
b00010000001000100000000000000110 )
b00000000000000000000000001100100 *
bUUUUUUUUUUUUUUUUUUUUUUUUUUUUUUUU +
b00000000000000000000000000000001 ,
1.
b00000000000000000000000000001100 0
b00010000001000100000000000000110 1
bUUUUUUUUUUUUUUUUUUUUUUUUUUUUUUUU 2
b00000000000000000000000001100100 3
b00000000000000000000000000000001 4
0:
0;
0<
b110 =
b000100 >
b000110 ?
0@
0C
0G
b110 H
b01 I
1J
b000100 K
1N
0R
b01 S
b000100001 T
b000110 U
b01 V
b110 W
1X
0[
0_
b110 `
bUUUUUUUUUUUUUUUUUUUUUUUUUUUUUUUU a
b00010000001000100000000000000110 b
0c
b00000000000000000000000000001100 d
b00000000000000000000000001100100 e
b00000000000000000000000000000001 f
b00010 g
b00000000100010000000000000011000 h
b00000000000000000000000000010000 i
b00000000000000000000000000010000 j
b00000000000000000000000000010000 k
b00000000000000000000000000101000 l
b00000000000000000000000000000110 m
b00000000000000000000000000011000 n
b00000000000000000000000001100101 o
b00000000000000000000000000000001 p
b00000000000000000000000001100100 q
1r
b00000000000000000000000000010000 t
b00000000000000000000000000001100 u
b00000000000000000000000000001100 v
b00000000000000000000000000010000 x
b00000000000000000000000000000110 y
b00000000000000000000000000011000 z
b00000000000000000000000000010000 {
b00000000000000000000000000011000 |
b00000000000000000000000000101000 }
b00000000000000000000000000010000 !"
b00000000000000000000000000101000 ""
0#"
b00000000000000000000000000010000 $"
b00000000000000000000000000010000 %"
b00000000100010000000000000011000 &"
0'"
b00000000000000000000000000010000 ("
1)"
b00001 +"
b00010 ,"
b00010 -"
b00000000000000000000000001100100 ."
b00000000000000000000000001100101 /"
b00000000000000000000000000000001 0"
b00010 1"
b00010 4"
b00000000000000000000000001100100 5"
bUUUUUUUUUUUUUUUUUUUUUUUUUUUUUUUU 6"
b00000000000000000000000001100100 8"
b0000000000000110 9"
b00000000000000000000000000000110 :"
b00000000000000000000000000000001 ;"
b00000000000000000000000000000110 <"
b00000000000000000000000000000001 >"
b00000000000000000000000001100101 ?"
b00000000000000000000000000000001 @"
b110 A"
b00000000000000000000000001100100 B"
0C"
b00000000000000000000000000001100 D"
b00010000001000100000000000000110 E"
1F"
b00000000000000000000000001100100 G"
b00000000000000000000000000000001 H"
bUUUUUUUUUUUUUUUUUUUUUUUUUUUUUUUU J"
#210000000
0!
0%
0.
0X
0r
0)"
0F"
#220000000
1!
b00000000011000100001100000100000 #
b1010 $
1%
b00000000011000100001100000100000 '
b00000000000000000000000000010000 (
b00000000011000100001100000100000 )
b00000000000000000000000000000001 *
b00000000000000000000000000000000 +
1.
b00000000000000000000000000010000 0
b00000000011000100001100000100000 1
b00000000000000000000000000000000 2
b00000000000000000000000000000001 3
18
19
b010 =
b000000 >
b100000 ?
1E
1F
b010 H
b10 I
0J
b000000 K
0N
1P
1Q
b10 S
b110000010 T
b100000 U
b10 V
b010 W
1X
1]
1^
b010 `
b00000000000000000000000000000000 a
b00000000011000100001100000100000 b
b00000000000000000000000000010000 d
b00000000000000000000000000000001 e
b00011 g
b00000001100010000110000010000000 h
b00000000000000000000000000010100 i
b00000000000000000000000000010100 j
b00000000000000000000000000010100 k
b00000000000000000110000010010100 l
b00000000000000000001100000100000 m
b00000000000000000110000010000000 n
b00000000000000000000000000000000 o
b00000000000000000000000000000001 q
1r
b00000000000000000000000000010100 t
b00000000000000000000000000010000 u
b00000000000000000000000000010000 v
b00000000000000000000000000010100 x
b00000000000000000001100000100000 y
b00000000000000000110000010000000 z
b00000000000000000000000000010100 {
b00000000000000000110000010000000 |
b00000000000000000110000010010100 }
b00000000000000000000000000010100 !"
b00000000000000000110000010010100 ""
b00000000000000000000000000010100 $"
b00000000000000000000000000010100 %"
b00000001100010000110000010000000 &"
b00000000000000000000000000010100 ("
1)"
1*"
b00011 +"
b00011 -"
b00000000000000000000000000000001 ."
b00000000000000000000000000000000 /"
b00011 2"
13"
b00011 4"
b00000000000000000000000000000001 5"
b00000000000000000000000000000000 6"
b00000000000000000000000000000001 8"
b0001100000100000 9"
b00000000000000000001100000100000 :"
b00000000000000000001100000100000 <"
b00000000000000000000000000000000 ?"
b010 A"
b00000000000000000000000000000001 B"
b00000000000000000000000000010000 D"
b00000000011000100001100000100000 E"
1F"
b00000000000000000000000000000001 G"
b00000000000000000000000000000000 J"
#230000000
0!
0%
0.
0X
0r
0)"
0F"
#240000000
1!
b00000000010000100010000000100000 #
b1011 $
1%
b00000000010000100010000000100000 '
b00000000000000000000000000010100 (
b00000000010000100010000000100000 )
b00000000000000000000000000000010 *
1.
b00000000000000000000000000010100 0
b00000000010000100010000000100000 1
b00000000000000000000000000000010 3
1X
b00000000010000100010000000100000 b
b00000000000000000000000000010100 d
b00000000000000000000000000000010 e
b00100 g
b00000001000010001000000010000000 h
b00000000000000000000000000011000 i
b00000000000000000000000000011000 j
b00000000000000000000000000011000 k
b00000000000000001000000010011000 l
b00000000000000000010000000100000 m
b00000000000000001000000010000000 n
b00000000000000000000000000000001 o
b00000000000000000000000000000010 q
1r
b00000000000000000000000000011000 t
b00000000000000000000000000010100 u
b00000000000000000000000000010100 v
b00000000000000000000000000011000 x
b00000000000000000010000000100000 y
b00000000000000001000000010000000 z
b00000000000000000000000000011000 {
b00000000000000001000000010000000 |
b00000000000000001000000010011000 }
b00000000000000000000000000011000 !"
b00000000000000001000000010011000 ""
b00000000000000000000000000011000 $"
b00000000000000000000000000011000 %"
b00000001000010001000000010000000 &"
b00000000000000000000000000011000 ("
1)"
b00010 +"
b00100 -"
b00000000000000000000000000000010 ."
b00000000000000000000000000000001 /"
b00100 2"
b00100 4"
b00000000000000000000000000000010 5"
b00000000000000000000000000000010 8"
b0010000000100000 9"
b00000000000000000010000000100000 :"
b00000000000000000010000000100000 <"
b00000000000000000000000000000001 ?"
b00000000000000000000000000000010 B"
b00000000000000000000000000010100 D"
b00000000010000100010000000100000 E"
1F"
b00000000000000000000000000000010 G"
#250000000
0!
0%
0.
0X
0r
0)"
0F"
